timestep,symbol,speed,distance,wait,fuel
1,a,58.13,58.13,58.13,58.13
2,a,53.98,53.98,53.98,53.98
3,a,67,67,67,67
4,a,89.7,89.7,89.7,89.7
5,a,99,99,99,99
6,a,130.28,130.28,130.28,130.28
7,a,166.7,166.7,166.7,166.7
8,a,234.98,234.98,234.98,234.98
9,a,345.44,345.44,345.44,345.44
10,a,443.34,443.34,443.34,443.34
11,a,543.7,543.7,543.7,543.7
12,a,580.13,580.13,580.13,580.13
13,a,605.23,605.23,605.23,605.23
14,a,622.77,622.77,622.77,622.77
15,a,626.2,626.2,626.2,626.2
16,a,628.44,628.44,628.44,628.44
17,a,636.23,636.23,636.23,636.23
18,a,633.68,633.68,633.68,633.68
19,a,624.31,624.31,624.31,624.31
20,a,629.32,629.32,629.32,629.32
21,a,618.63,618.63,618.63,618.63
22,a,599.55,599.55,599.55,599.55
23,a,609.86,609.86,609.86,609.86
24,a,617.62,617.62,617.62,617.62
25,a,614.48,614.48,614.48,614.48
26,a,606.98,606.98,606.98,606.98
30,a,700,700,700,700
40,a,900,900,900,900
50,a,1000,1000,1000,1000
