timestep,symbol,speed,distance,wait,fuel
1,d,600,600,600,600
2,d,600,600,600,600
3,d,600,600,600,600
4,d,600,600,600,600
5,d,600,600,600,600
6,d,600,600,600,600
7,d,600,600,600,600
8,d,600,600,600,600
9,d,600,600,600,600
10,d,600,600,600,600
11,d,600,600,600,600
12,d,600,600,600,600
13,d,600,600,600,600
14,d,600,600,600,600
15,d,600,600,600,600
16,d,600,600,600,600
17,d,600,600,600,600
18,d,600,600,600,600
19,d,600,600,600,600
20,d,600,600,600,600
21,d,600,600,600,600
22,d,600,600,600,600
23,d,600,600,600,600
24,d,600,600,600,600
25,d,600,600,600,600
26,d,600,600,600,600
30,d,600,600,600,600
40,d,600,600,600,600
50,d,600,600,600,600
