timeStep, symbol, speed, distance, wait, fuel
1, integrityScenario.csv, 11.2905, 0, 2, 0
2, integrityScenario.csv, 18.4789, 22160.2, 2.3, 0
3, integrityScenario.csv, 15.8051, 41529.1, 3.1, 0
4, integrityScenario.csv, 18.5242, 65573.7, 4.3, 0
5, integrityScenario.csv, 20.4245, 91349.7, 5.9, 0
6, integrityScenario.csv, 20.4255, 123285, 7.9, 0
7, integrityScenario.csv, 19.4387, 164155, 9.7, 0
8, integrityScenario.csv, 15.6605, 211385, 12.1, 0
9, integrityScenario.csv, 15.5081, 258250, 13.9, 0
10, integrityScenario.csv, 15.8189, 299681, 33.6, 0
11, integrityScenario.csv, 16.0587, 355932, 36.9, 0
12, integrityScenario.csv, 17.3113, 413872, 39.7, 0
13, integrityScenario.csv, 14.7379, 469986, 44.4, 0
14, integrityScenario.csv, 13.3944, 538535, 47.2, 0
15, integrityScenario.csv, 13.0493, 568425, 68.6, 0
16, integrityScenario.csv, 15.2433, 637013, 73.5, 0
17, integrityScenario.csv, 16.3171, 713840, 77.7, 0
18, integrityScenario.csv, 16.2096, 788816, 83.1, 0
19, integrityScenario.csv, 15.4892, 867085, 87.8, 0
20, integrityScenario.csv, 14.1685, 920124, 110.3, 0
21, integrityScenario.csv, 14.2351, 1.00645e+006, 115.6, 0
22, integrityScenario.csv, 15.6061, 1.09459e+006, 122.7, 0
23, integrityScenario.csv, 17.0377, 1.19612e+006, 128.2, 0
24, integrityScenario.csv, 16.6608, 1.26765e+006, 133.4, 0
25, integrityScenario.csv, 13.9169, 1.28303e+006, 157.3, 0
26, integrityScenario.csv, 14.1729, 1.35646e+006, 163.2, 0
27, integrityScenario.csv, 15.8268, 1.42554e+006, 170.2, 0
28, integrityScenario.csv, 17.3891, 1.5401e+006, 176.4, 0
29, integrityScenario.csv, 16.6413, 1.63072e+006, 183.1, 0
30, integrityScenario.csv, 15.2789, 1.54044e+006, 206.4, 0
31, integrityScenario.csv, 14.4564, 1.65328e+006, 213.3, 0
32, integrityScenario.csv, 15.2754, 1.74622e+006, 220.6, 0
33, integrityScenario.csv, 17.1562, 1.82334e+006, 226.6, 0
34, integrityScenario.csv, 15.9444, 1.75496e+006, 250.4, 0
35, integrityScenario.csv, 15.7893, 1.67816e+006, 257.9, 0
36, integrityScenario.csv, 17.2713, 1.79346e+006, 264.4, 0
37, integrityScenario.csv, 15.7469, 1.67315e+006, 272, 0
38, integrityScenario.csv, 15.8477, 1.80966e+006, 277.6, 0
39, integrityScenario.csv, 15.4597, 1.71928e+006, 301.6, 0
40, integrityScenario.csv, 16.1791, 1.65633e+006, 309, 0
41, integrityScenario.csv, 17.1932, 1.77965e+006, 315.7, 0
42, integrityScenario.csv, 17.4909, 1.76239e+006, 322.8, 0
43, integrityScenario.csv, 15.7331, 1.78457e+006, 328.8, 0
44, integrityScenario.csv, 14.9042, 1.66648e+006, 352.7, 0
45, integrityScenario.csv, 15.8369, 1.74597e+006, 359.4, 0
46, integrityScenario.csv, 16.0961, 1.7055e+006, 367.5, 0
47, integrityScenario.csv, 17.5738, 1.75026e+006, 373.7, 0
48, integrityScenario.csv, 17.387, 1.84639e+006, 379.5, 0
49, integrityScenario.csv, 14.2627, 1.63943e+006, 403.8, 0
50, integrityScenario.csv, 14.0255, 1.72908e+006, 410.3, 0
51, integrityScenario.csv, 15.9933, 1.75698e+006, 417.8, 0
52, integrityScenario.csv, 17.4973, 1.72896e+006, 424.3, 0
53, integrityScenario.csv, 16.8298, 1.82855e+006, 431.1, 0
54, integrityScenario.csv, 15.7239, 1.69199e+006, 454.6, 0
55, integrityScenario.csv, 14.4395, 1.70501e+006, 461.5, 0
56, integrityScenario.csv, 15.2791, 1.7462e+006, 468.8, 0
57, integrityScenario.csv, 17.1623, 1.82332e+006, 474.8, 0
58, integrityScenario.csv, 15.9413, 1.75496e+006, 498.6, 0
59, integrityScenario.csv, 15.7893, 1.67816e+006, 506.1, 0
60, integrityScenario.csv, 17.2713, 1.79346e+006, 512.6, 0
61, integrityScenario.csv, 15.7469, 1.67315e+006, 520.2, 0
62, integrityScenario.csv, 15.8477, 1.80966e+006, 525.8, 0
63, integrityScenario.csv, 15.4597, 1.71928e+006, 549.8, 0
64, integrityScenario.csv, 16.1791, 1.65633e+006, 557.2, 0
65, integrityScenario.csv, 17.1932, 1.77965e+006, 563.9, 0
66, integrityScenario.csv, 17.4909, 1.76239e+006, 571, 0
67, integrityScenario.csv, 15.7331, 1.78457e+006, 577, 0
68, integrityScenario.csv, 14.9042, 1.66648e+006, 600.9, 0
69, integrityScenario.csv, 15.8369, 1.74597e+006, 607.6, 0
70, integrityScenario.csv, 16.0961, 1.7055e+006, 615.7, 0
71, integrityScenario.csv, 17.5738, 1.75026e+006, 621.9, 0
